…
    ## 
    ## ℹ Use `spec()` to retrieve the full column specification for this data.
    ## ℹ Specify the column types or set `show_col_types = FALSE` to quiet this message.

## 4.3 Previewing the data

Now that we have imported the files, we will preview the data and its
structure.

``` r
as_tibble(activity_daily)
```

    ## # A tibble: 940 × 15
    ##            Id ActivityDate TotalSteps TotalDistance TrackerDistance LoggedActivitie…
    ##         <dbl> <chr>             <dbl>         <dbl>           <dbl>            <dbl>
    ##  1 1503960366 4/12/2016         13162          8.5             8.5                 0
    ##  2 1503960366 4/13/2016         10735          6.97            6.97                0
    ##  3 1503960366 4/14/2016         10460          6.74            6.74                0
    ##  4 1503960366 4/15/2016          9762          6.28            6.28                0
    ##  5 1503960366 4/16/2016         12669          8.16            8.16                0
    ##  6 1503960366 4/17/2016          9705          6.48            6.48                0
    ##  7 1503960366 4/18/2016         13019          8.59            8.59                0
    ##  8 1503960366 4/19/2016         15506          9.88            9.88                0
    ##  9 1503960366 4/20/2016         10544          6.68            6.68                0
    ## 10 1503960366 4/21/2016          9819          6.34            6.34                0
    ## # … with 930 more rows, and 9 more variables: VeryActiveDistance <dbl>,
    ## #   ModeratelyActiveDistance <dbl>, LightActiveDistance <dbl>,
    ## #   SedentaryActiveDistance <dbl>, VeryActiveMinutes <dbl>,
    ## #   FairlyActiveMinutes <dbl>, LightlyActiveMinutes <dbl>,
    ## #   SedentaryMinutes <dbl>, Calories <dbl>
…
``` r
as_tibble(heartrate_seconds)
```

    ## # A tibble: 2,483,658 × 3
    ##            Id Time                 Value
    ##         <dbl> <chr>                <dbl>
    ##  1 2022484408 4/12/2016 7:21:00 AM    97
    ##  2 2022484408 4/12/2016 7:21:05 AM   102
    ##  3 2022484408 4/12/2016 7:21:10 AM   105
    ##  4 2022484408 4/12/2016 7:21:20 AM   103
    ##  5 2022484408 4/12/2016 7:21:25 AM   101
    ##  6 2022484408 4/12/2016 7:22:05 AM    95
    ##  7 2022484408 4/12/2016 7:22:10 AM    91
    ##  8 2022484408 4/12/2016 7:22:15 AM    93
    ##  9 2022484408 4/12/2016 7:22:20 AM    94
    ## 10 2022484408 4/12/2016 7:22:25 AM    93
    ## # … with 2,483,648 more rows
…
``` r
as_tibble(sleep_daily)
```

    ## # A tibble: 413 × 5
    ##            Id SleepDay              TotalSleepRecor… TotalMinutesAsl… TotalTimeInBed
    ##         <dbl> <chr>                            <dbl>            <dbl>          <dbl>
    ##  1 1503960366 4/12/2016 12:00:00 AM                1              327            346
    ##  2 1503960366 4/13/2016 12:00:00 AM                2              384            407
    ##  3 1503960366 4/15/2016 12:00:00 AM                1              412            442
    ##  4 1503960366 4/16/2016 12:00:00 AM                2              340            367
    ##  5 1503960366 4/17/2016 12:00:00 AM                1              700            712
    ##  6 1503960366 4/19/2016 12:00:00 AM                1              304            320
    ##  7 1503960366 4/20/2016 12:00:00 AM                1              360            377
    ##  8 1503960366 4/21/2016 12:00:00 AM                1              325            364
    ##  9 1503960366 4/23/2016 12:00:00 AM                1              361            384
    ## 10 1503960366 4/24/2016 12:00:00 AM                1              430            449
    ## # … with 403 more rows
…
``` r
as_tibble(sleep_minutes)
```

    ## # A tibble: 188,521 × 4
    ##            Id date                 value       logId
    ##         <dbl> <chr>                <dbl>       <dbl>
    ##  1 1503960366 4/12/2016 2:47:30 AM     3 11380564589
    ##  2 1503960366 4/12/2016 2:48:30 AM     2 11380564589
    ##  3 1503960366 4/12/2016 2:49:30 AM     1 11380564589
    ##  4 1503960366 4/12/2016 2:50:30 AM     1 11380564589
    ##  5 1503960366 4/12/2016 2:51:30 AM     1 11380564589
    ##  6 1503960366 4/12/2016 2:52:30 AM     1 11380564589
    ##  7 1503960366 4/12/2016 2:53:30 AM     1 11380564589
    ##  8 1503960366 4/12/2016 2:54:30 AM     2 11380564589
    ##  9 1503960366 4/12/2016 2:55:30 AM     2 11380564589
    ## 10 1503960366 4/12/2016 2:56:30 AM     2 11380564589
    ## # … with 188,511 more rows
…
``` r
as_tibble(steps_hourly)
```

    ## # A tibble: 22,099 × 3
    ##            Id ActivityHour          StepTotal
    ##         <dbl> <chr>                     <dbl>
    ##  1 1503960366 4/12/2016 12:00:00 AM       373
    ##  2 1503960366 4/12/2016 1:00:00 AM        160
    ##  3 1503960366 4/12/2016 2:00:00 AM        151
    ##  4 1503960366 4/12/2016 3:00:00 AM          0
    ##  5 1503960366 4/12/2016 4:00:00 AM          0
    ##  6 1503960366 4/12/2016 5:00:00 AM          0
    ##  7 1503960366 4/12/2016 6:00:00 AM          0
    ##  8 1503960366 4/12/2016 7:00:00 AM          0
    ##  9 1503960366 4/12/2016 8:00:00 AM        250
    ## 10 1503960366 4/12/2016 9:00:00 AM       1864
    ## # … with 22,089 more rows
…
``` r
as_tibble(weight_logs)
```

    ## # A tibble: 67 × 8
    ##            Id Date     WeightKg WeightPounds   Fat   BMI IsManualReport    LogId
    ##         <dbl> <chr>       <dbl>        <dbl> <dbl> <dbl> <lgl>             <dbl>
    ##  1 1503960366 5/2/201…     52.6         116.    22  22.6 TRUE            1.46e12
    ##  2 1503960366 5/3/201…     52.6         116.    NA  22.6 TRUE            1.46e12
    ##  3 1927972279 4/13/20…    134.          294.    NA  47.5 FALSE           1.46e12
    ##  4 2873212765 4/21/20…     56.7         125.    NA  21.5 TRUE            1.46e12
    ##  5 2873212765 5/12/20…     57.3         126.    NA  21.7 TRUE            1.46e12
    ##  6 4319703577 4/17/20…     72.4         160.    25  27.5 TRUE            1.46e12
    ##  7 4319703577 5/4/201…     72.3         159.    NA  27.4 TRUE            1.46e12
    ##  8 4558609924 4/18/20…     69.7         154.    NA  27.2 TRUE            1.46e12
    ##  9 4558609924 4/25/20…     70.3         155.    NA  27.5 TRUE            1.46e12
    ## 10 4558609924 5/1/201…     69.9         154.    NA  27.3 TRUE            1.46e12
    ## # … with 57 more rows
…
Now, we will calculate each user’s daily average steps.

``` r
daily_avg_steps <- daily_data_merged %>% 
  group_by(id) %>% 
  summarise(daily_avg_steps = mean(total_steps))

daily_avg_steps
```

    ## # A tibble: 24 × 2
    ##            id daily_avg_steps
    ##         <dbl>           <dbl>
    ##  1 1503960366          12406.
    ##  2 1644430081           7968.
    ##  3 1844505072           3477 
    ##  4 1927972279           1490 
    ##  5 2026352035           5619.
    ##  6 2320127002           5079 
    ##  7 2347167796           8533.
    ##  8 3977333714          11218 
    ##  9 4020332650           6597.
    ## 10 4319703577           7125.
    ## # … with 14 more rows
…
``` r
avg_sleep_state_per_day <- sleep_minutes %>%
  rename(date = date_time) %>% 
  mutate(date = as_date(date, tz=Sys.timezone())) %>% 
  group_by(id, date) %>% 
  summarize(avg_sleep_state = mean(sleep_state))
```

    ## `summarise()` has grouped output by 'id'. You can override using the `.groups` argument.

``` r
(avg_sleep_state_per_day)
```

    ## # A tibble: 449 × 3
    ## # Groups:   id [24]
    ##            id date       avg_sleep_state
    ##         <dbl> <date>               <dbl>
    ##  1 1503960366 2016-04-12            1.07
    ##  2 1503960366 2016-04-13            1.09
    ##  3 1503960366 2016-04-15            1.09
    ##  4 1503960366 2016-04-16            1.09
    ##  5 1503960366 2016-04-17            1.02
    ##  6 1503960366 2016-04-19            1.05
    ##  7 1503960366 2016-04-20            1.05
    ##  8 1503960366 2016-04-21            1.12
    ##  9 1503960366 2016-04-23            1.06
    ## 10 1503960366 2016-04-24            1.04
    ## # … with 439 more rows
…
``` r
weekdays_vs_weekends <- activity_daily %>% 
  mutate(day = weekdays(date), weekday_or_weekend = case_when(
    day == "Monday" ~ "weekday",
    day == "Tuesday" ~ "weekday",
    day == "Wednesday" ~ "weekday",
    day == "Thursday" ~ "weekday",
    day == "Friday" ~ "weekday",
    TRUE ~ "weekend")) %>% select(id, date, day, weekday_or_weekend, everything())

weekdays_vs_weekends
```

    ## # A tibble: 940 × 17
    ##            id date       day       weekday_or_weekend total_steps total_distance
    ##         <dbl> <date>     <chr>     <chr>                    <dbl>          <dbl>
    ##  1 1503960366 2016-04-12 Tuesday   weekday                  13162           8.5 
    ##  2 1503960366 2016-04-13 Wednesday weekday                  10735           6.97
    ##  3 1503960366 2016-04-14 Thursday  weekday                  10460           6.74
    ##  4 1503960366 2016-04-15 Friday    weekday                   9762           6.28
    ##  5 1503960366 2016-04-16 Saturday  weekend                  12669           8.16
    ##  6 1503960366 2016-04-17 Sunday    weekend                   9705           6.48
    ##  7 1503960366 2016-04-18 Monday    weekday                  13019           8.59
    ##  8 1503960366 2016-04-19 Tuesday   weekday                  15506           9.88
    ##  9 1503960366 2016-04-20 Wednesday weekday                  10544           6.68
    ## 10 1503960366 2016-04-21 Thursday  weekday                   9819           6.34
    ## # … with 930 more rows, and 11 more variables: tracker_distance <dbl>,
    ## #   logged_activities_distance <dbl>, very_active_distance <dbl>,
    ## #   moderately_active_distance <dbl>, light_active_distance <dbl>,
    ## #   sedentary_active_distance <dbl>, very_active_minutes <dbl>,
    ## #   fairly_active_minutes <dbl>, lightly_active_minutes <dbl>,
    ## #   sedentary_minutes <dbl>, calories <dbl>
…
